1 10 20
100 200 125
201 210 89
900 1000 174
30 40 107
10 1 20
35 35 14
23456 35641 311
7777 8888 252
1201 1999 180
346 400 126
123 456 144
789 153 171
111 222 125
333 4444 238
789 1203 182
898 787 179
353 543 142
1000 2000 182
303 405 144
660 670 145
112 113 21
45 47 105
99 199 125
34 100 119
446 1200 182
1248 4444 238
12044 19503 279
1759 18981 279
559 600 119
124 5657 238
185 596 144
102 195 125
128 946 179
2147 3598 217
1000 5000 238
6000 7000 262
277 458 144
3272 5959 238
464 600 142
2939 5668 238
27 49 112
9 16 20
11 567 144
345 3333 217
44 74 116
211 445 144
233 638 144
11 66 113
346 347 126
101 495 144
374 382 108
12 50 112
49 389 144
384 38 144
327 4596 238
31 37 107
1 12 20
1 100 119
1 1000 179
3 989 179
48 70 113
333 999 179
5999 10000 262
34781 4589 311
234 191 128
66 99 119
56 780 171
23 555 144
1 585 144
37 458 144
28 59 113
677 282 145
474 477 36
2727 7373 262
222 3000 217
11 56 113
11 57 113
9 11 20
475 33 144
10 27 112
22 20 16
99 233 128
1 12 20
44 84 116
32 69 113
18 59 113
16 333 144
185 383 144
4575 32834 308
60 80 116
28 59 113
57 690 145
284 6868 262
27 67 113
473 273 144
47 6846 262
38 54 113
477 1838 182
11 56 113
19 21 21
21 50 112
46 17 112
37 77 116
1 8 17
17 48 112
99999 999999 525
